[
    {
        "inputs": [
            {
                "internalType": "address",
                "name": "_subscrRegistry",
                "type": "address"
            }
        ],
        "stateMutability": "nonpayable",
        "type": "constructor"
    },
    {
        "inputs": [
            {
                "internalType": "address",
                "name": "User",
                "type": "address"
            },
            {
                "internalType": "address",
                "name": "Contract",
                "type": "address"
            }
        ],
        "name": "Unauthorized",
        "type": "error"
    },
    {
        "anonymous": false,
        "inputs": [
            {
                "indexed": true,
                "internalType": "address",
                "name": "previousOwner",
                "type": "address"
            },
            {
                "indexed": true,
                "internalType": "address",
                "name": "newOwner",
                "type": "address"
            }
        ],
        "name": "OwnershipTransferred",
        "type": "event"
    },
    {
        "inputs": [
            {
                "components": [
                    {
                        "internalType": "enum UsersSBTCollectionRegistry.AssetType",
                        "name": "assetType",
                        "type": "uint8"
                    },
                    {
                        "internalType": "address",
                        "name": "contractAddress",
                        "type": "address"
                    }
                ],
                "internalType": "struct UsersSBTCollectionRegistry.Asset",
                "name": "_impl",
                "type": "tuple"
            }
        ],
        "name": "addImplementation",
        "outputs": [

        ],
        "stateMutability": "nonpayable",
        "type": "function"
    },
    {
        "inputs": [
            {
                "internalType": "uint256",
                "name": "_tariffIndex",
                "type": "uint256"
            },
            {
                "internalType": "address",
                "name": "_paymentToken",
                "type": "address"
            },
            {
                "internalType": "uint256",
                "name": "_paymentAmount",
                "type": "uint256"
            },
            {
                "internalType": "uint16",
                "name": "_agentFeePercent",
                "type": "uint16"
            }
        ],
        "name": "addPayOption",
        "outputs": [
            {
                "internalType": "uint256",
                "name": "index",
                "type": "uint256"
            }
        ],
        "stateMutability": "nonpayable",
        "type": "function"
    },
    {
        "inputs": [
            {
                "internalType": "address",
                "name": "_agent",
                "type": "address"
            },
            {
                "internalType": "uint256[]",
                "name": "_serviceTariffIndexes",
                "type": "uint256[]"
            }
        ],
        "name": "authorizeAgentForService",
        "outputs": [
            {
                "internalType": "uint256[]",
                "name": "actualTariffs",
                "type": "uint256[]"
            }
        ],
        "stateMutability": "nonpayable",
        "type": "function"
    },
    {
        "inputs": [
            {
                "internalType": "address",
                "name": "_user",
                "type": "address"
            }
        ],
        "name": "checkUserSubscription",
        "outputs": [
            {
                "internalType": "bool",
                "name": "ok",
                "type": "bool"
            },
            {
                "internalType": "bool",
                "name": "needFix",
                "type": "bool"
            }
        ],
        "stateMutability": "view",
        "type": "function"
    },
    {
        "inputs": [
            {
                "internalType": "address",
                "name": "",
                "type": "address"
            },
            {
                "internalType": "uint256",
                "name": "",
                "type": "uint256"
            }
        ],
        "name": "collectionRegistry",
        "outputs": [
            {
                "internalType": "enum UsersSBTCollectionRegistry.AssetType",
                "name": "assetType",
                "type": "uint8"
            },
            {
                "internalType": "address",
                "name": "contractAddress",
                "type": "address"
            }
        ],
        "stateMutability": "view",
        "type": "function"
    },
    {
        "inputs": [
            {
                "internalType": "address",
                "name": "_implAddress",
                "type": "address"
            },
            {
                "internalType": "address",
                "name": "_creator",
                "type": "address"
            },
            {
                "internalType": "string",
                "name": "name_",
                "type": "string"
            },
            {
                "internalType": "string",
                "name": "symbol_",
                "type": "string"
            },
            {
                "internalType": "string",
                "name": "_baseurl",
                "type": "string"
            },
            {
                "internalType": "address",
                "name": "_wrapper",
                "type": "address"
            },
            {
                "components": [
                    {
                        "components": [
                            {
                                "internalType": "uint256",
                                "name": "start",
                                "type": "uint256"
                            },
                            {
                                "internalType": "uint256",
                                "name": "finish",
                                "type": "uint256"
                            }
                        ],
                        "internalType": "struct EventManager.Period",
                        "name": "useTicket",
                        "type": "tuple"
                    },
                    {
                        "components": [
                            {
                                "internalType": "uint256",
                                "name": "start",
                                "type": "uint256"
                            },
                            {
                                "internalType": "uint256",
                                "name": "finish",
                                "type": "uint256"
                            }
                        ],
                        "internalType": "struct EventManager.Period",
                        "name": "certificate",
                        "type": "tuple"
                    },
                    {
                        "internalType": "bytes2",
                        "name": "sbtRules",
                        "type": "bytes2"
                    },
                    {
                        "internalType": "address",
                        "name": "tickets",
                        "type": "address"
                    }
                ],
                "internalType": "struct EventManager.EventDates",
                "name": "_eventDates",
                "type": "tuple"
            }
        ],
        "name": "deployNewCollection",
        "outputs": [
            {
                "internalType": "address",
                "name": "newCollection",
                "type": "address"
            }
        ],
        "stateMutability": "nonpayable",
        "type": "function"
    },
    {
        "inputs": [
            {
                "internalType": "address",
                "name": "_implAddress",
                "type": "address"
            },
            {
                "internalType": "address",
                "name": "_creator",
                "type": "address"
            },
            {
                "internalType": "string",
                "name": "name_",
                "type": "string"
            },
            {
                "internalType": "string",
                "name": "symbol_",
                "type": "string"
            },
            {
                "internalType": "string",
                "name": "_baseurl",
                "type": "string"
            },
            {
                "internalType": "address",
                "name": "_wrapper",
                "type": "address"
            }
        ],
        "name": "deployNewCollection",
        "outputs": [
            {
                "internalType": "address",
                "name": "newCollection",
                "type": "address"
            }
        ],
        "stateMutability": "nonpayable",
        "type": "function"
    },
    {
        "inputs": [
            {
                "internalType": "address",
                "name": "_eventContract",
                "type": "address"
            },
            {
                "components": [
                    {
                        "components": [
                            {
                                "internalType": "uint256",
                                "name": "start",
                                "type": "uint256"
                            },
                            {
                                "internalType": "uint256",
                                "name": "finish",
                                "type": "uint256"
                            }
                        ],
                        "internalType": "struct EventManager.Period",
                        "name": "useTicket",
                        "type": "tuple"
                    },
                    {
                        "components": [
                            {
                                "internalType": "uint256",
                                "name": "start",
                                "type": "uint256"
                            },
                            {
                                "internalType": "uint256",
                                "name": "finish",
                                "type": "uint256"
                            }
                        ],
                        "internalType": "struct EventManager.Period",
                        "name": "certificate",
                        "type": "tuple"
                    },
                    {
                        "internalType": "bytes2",
                        "name": "sbtRules",
                        "type": "bytes2"
                    },
                    {
                        "internalType": "address",
                        "name": "tickets",
                        "type": "address"
                    }
                ],
                "internalType": "struct EventManager.EventDates",
                "name": "_newEventDates",
                "type": "tuple"
            }
        ],
        "name": "editDatesForEvent",
        "outputs": [

        ],
        "stateMutability": "nonpayable",
        "type": "function"
    },
    {
        "inputs": [
            {
                "internalType": "uint256",
                "name": "_tariffIndex",
                "type": "uint256"
            },
            {
                "internalType": "uint256",
                "name": "_payWithIndex",
                "type": "uint256"
            },
            {
                "internalType": "address",
                "name": "_paymentToken",
                "type": "address"
            },
            {
                "internalType": "uint256",
                "name": "_paymentAmount",
                "type": "uint256"
            },
            {
                "internalType": "uint16",
                "name": "_agentFeePercent",
                "type": "uint16"
            }
        ],
        "name": "editPayOption",
        "outputs": [

        ],
        "stateMutability": "nonpayable",
        "type": "function"
    },
    {
        "inputs": [
            {
                "internalType": "uint256",
                "name": "_tariffIndex",
                "type": "uint256"
            },
            {
                "internalType": "uint256",
                "name": "_timelockPeriod",
                "type": "uint256"
            },
            {
                "internalType": "uint256",
                "name": "_ticketValidPeriod",
                "type": "uint256"
            },
            {
                "internalType": "uint256",
                "name": "_counter",
                "type": "uint256"
            },
            {
                "internalType": "bool",
                "name": "_isAvailable",
                "type": "bool"
            },
            {
                "internalType": "address",
                "name": "_beneficiary",
                "type": "address"
            }
        ],
        "name": "editServiceTariff",
        "outputs": [

        ],
        "stateMutability": "nonpayable",
        "type": "function"
    },
    {
        "inputs": [
            {
                "internalType": "address",
                "name": "",
                "type": "address"
            }
        ],
        "name": "events",
        "outputs": [
            {
                "components": [
                    {
                        "internalType": "uint256",
                        "name": "start",
                        "type": "uint256"
                    },
                    {
                        "internalType": "uint256",
                        "name": "finish",
                        "type": "uint256"
                    }
                ],
                "internalType": "struct EventManager.Period",
                "name": "useTicket",
                "type": "tuple"
            },
            {
                "components": [
                    {
                        "internalType": "uint256",
                        "name": "start",
                        "type": "uint256"
                    },
                    {
                        "internalType": "uint256",
                        "name": "finish",
                        "type": "uint256"
                    }
                ],
                "internalType": "struct EventManager.Period",
                "name": "certificate",
                "type": "tuple"
            },
            {
                "internalType": "bytes2",
                "name": "sbtRules",
                "type": "bytes2"
            },
            {
                "internalType": "address",
                "name": "tickets",
                "type": "address"
            }
        ],
        "stateMutability": "view",
        "type": "function"
    },
    {
        "inputs": [

        ],
        "name": "factory",
        "outputs": [
            {
                "internalType": "contract IUsersSBTCollectionFactory",
                "name": "",
                "type": "address"
            }
        ],
        "stateMutability": "view",
        "type": "function"
    },
    {
        "inputs": [
            {
                "internalType": "address",
                "name": "_eventContract",
                "type": "address"
            }
        ],
        "name": "getDataForEvent",
        "outputs": [
            {
                "components": [
                    {
                        "components": [
                            {
                                "internalType": "uint256",
                                "name": "start",
                                "type": "uint256"
                            },
                            {
                                "internalType": "uint256",
                                "name": "finish",
                                "type": "uint256"
                            }
                        ],
                        "internalType": "struct EventManager.Period",
                        "name": "useTicket",
                        "type": "tuple"
                    },
                    {
                        "components": [
                            {
                                "internalType": "uint256",
                                "name": "start",
                                "type": "uint256"
                            },
                            {
                                "internalType": "uint256",
                                "name": "finish",
                                "type": "uint256"
                            }
                        ],
                        "internalType": "struct EventManager.Period",
                        "name": "certificate",
                        "type": "tuple"
                    },
                    {
                        "internalType": "bytes2",
                        "name": "sbtRules",
                        "type": "bytes2"
                    },
                    {
                        "internalType": "address",
                        "name": "tickets",
                        "type": "address"
                    }
                ],
                "internalType": "struct EventManager.EventDates",
                "name": "d",
                "type": "tuple"
            }
        ],
        "stateMutability": "view",
        "type": "function"
    },
    {
        "inputs": [
            {
                "internalType": "address",
                "name": "_ticketContract",
                "type": "address"
            }
        ],
        "name": "getEventsForTicket",
        "outputs": [
            {
                "internalType": "address[]",
                "name": "e",
                "type": "address[]"
            },
            {
                "components": [
                    {
                        "components": [
                            {
                                "internalType": "uint256",
                                "name": "start",
                                "type": "uint256"
                            },
                            {
                                "internalType": "uint256",
                                "name": "finish",
                                "type": "uint256"
                            }
                        ],
                        "internalType": "struct EventManager.Period",
                        "name": "useTicket",
                        "type": "tuple"
                    },
                    {
                        "components": [
                            {
                                "internalType": "uint256",
                                "name": "start",
                                "type": "uint256"
                            },
                            {
                                "internalType": "uint256",
                                "name": "finish",
                                "type": "uint256"
                            }
                        ],
                        "internalType": "struct EventManager.Period",
                        "name": "certificate",
                        "type": "tuple"
                    },
                    {
                        "internalType": "bytes2",
                        "name": "sbtRules",
                        "type": "bytes2"
                    },
                    {
                        "internalType": "address",
                        "name": "tickets",
                        "type": "address"
                    }
                ],
                "internalType": "struct EventManager.EventDates[]",
                "name": "d",
                "type": "tuple[]"
            }
        ],
        "stateMutability": "view",
        "type": "function"
    },
    {
        "inputs": [

        ],
        "name": "getSupportedImplementation",
        "outputs": [
            {
                "components": [
                    {
                        "internalType": "enum UsersSBTCollectionRegistry.AssetType",
                        "name": "assetType",
                        "type": "uint8"
                    },
                    {
                        "internalType": "address",
                        "name": "contractAddress",
                        "type": "address"
                    }
                ],
                "internalType": "struct UsersSBTCollectionRegistry.Asset[]",
                "name": "",
                "type": "tuple[]"
            }
        ],
        "stateMutability": "view",
        "type": "function"
    },
    {
        "inputs": [
            {
                "internalType": "address",
                "name": "_user",
                "type": "address"
            }
        ],
        "name": "getUsersCollections",
        "outputs": [
            {
                "components": [
                    {
                        "internalType": "enum UsersSBTCollectionRegistry.AssetType",
                        "name": "assetType",
                        "type": "uint8"
                    },
                    {
                        "internalType": "address",
                        "name": "contractAddress",
                        "type": "address"
                    }
                ],
                "internalType": "struct UsersSBTCollectionRegistry.Asset[]",
                "name": "",
                "type": "tuple[]"
            }
        ],
        "stateMutability": "view",
        "type": "function"
    },
    {
        "inputs": [

        ],
        "name": "isEnabled",
        "outputs": [
            {
                "internalType": "bool",
                "name": "",
                "type": "bool"
            }
        ],
        "stateMutability": "view",
        "type": "function"
    },
    {
        "inputs": [
            {
                "internalType": "address",
                "name": "_impl",
                "type": "address"
            }
        ],
        "name": "isImplementationSupported",
        "outputs": [
            {
                "internalType": "bool",
                "name": "isSupported",
                "type": "bool"
            },
            {
                "internalType": "uint256",
                "name": "index",
                "type": "uint256"
            }
        ],
        "stateMutability": "view",
        "type": "function"
    },
    {
        "inputs": [
            {
                "internalType": "address",
                "name": "_eventContract",
                "type": "address"
            }
        ],
        "name": "isRulesUpdateEnabled",
        "outputs": [
            {
                "internalType": "bytes2",
                "name": "rules",
                "type": "bytes2"
            }
        ],
        "stateMutability": "view",
        "type": "function"
    },
    {
        "inputs": [
            {
                "internalType": "address",
                "name": "_ticketContract",
                "type": "address"
            },
            {
                "internalType": "address",
                "name": "_eventContract",
                "type": "address"
            }
        ],
        "name": "isWrapEnabled",
        "outputs": [
            {
                "internalType": "bool",
                "name": "enabled",
                "type": "bool"
            }
        ],
        "stateMutability": "view",
        "type": "function"
    },
    {
        "inputs": [
            {
                "components": [
                    {
                        "components": [
                            {
                                "internalType": "uint256",
                                "name": "timelockPeriod",
                                "type": "uint256"
                            },
                            {
                                "internalType": "uint256",
                                "name": "ticketValidPeriod",
                                "type": "uint256"
                            },
                            {
                                "internalType": "uint256",
                                "name": "counter",
                                "type": "uint256"
                            },
                            {
                                "internalType": "bool",
                                "name": "isAvailable",
                                "type": "bool"
                            },
                            {
                                "internalType": "address",
                                "name": "beneficiary",
                                "type": "address"
                            }
                        ],
                        "internalType": "struct SubscriptionType",
                        "name": "subscription",
                        "type": "tuple"
                    },
                    {
                        "components": [
                            {
                                "internalType": "address",
                                "name": "paymentToken",
                                "type": "address"
                            },
                            {
                                "internalType": "uint256",
                                "name": "paymentAmount",
                                "type": "uint256"
                            },
                            {
                                "internalType": "uint16",
                                "name": "agentFeePercent",
                                "type": "uint16"
                            }
                        ],
                        "internalType": "struct PayOption[]",
                        "name": "payWith",
                        "type": "tuple[]"
                    }
                ],
                "internalType": "struct Tariff",
                "name": "_newTariff",
                "type": "tuple"
            }
        ],
        "name": "newTariff",
        "outputs": [
            {
                "internalType": "uint256",
                "name": "tariffIndex",
                "type": "uint256"
            }
        ],
        "stateMutability": "nonpayable",
        "type": "function"
    },
    {
        "inputs": [

        ],
        "name": "owner",
        "outputs": [
            {
                "internalType": "address",
                "name": "",
                "type": "address"
            }
        ],
        "stateMutability": "view",
        "type": "function"
    },
    {
        "inputs": [
            {
                "components": [
                    {
                        "components": [
                            {
                                "internalType": "uint256",
                                "name": "timelockPeriod",
                                "type": "uint256"
                            },
                            {
                                "internalType": "uint256",
                                "name": "ticketValidPeriod",
                                "type": "uint256"
                            },
                            {
                                "internalType": "uint256",
                                "name": "counter",
                                "type": "uint256"
                            },
                            {
                                "internalType": "bool",
                                "name": "isAvailable",
                                "type": "bool"
                            },
                            {
                                "internalType": "address",
                                "name": "beneficiary",
                                "type": "address"
                            }
                        ],
                        "internalType": "struct SubscriptionType",
                        "name": "subscription",
                        "type": "tuple"
                    },
                    {
                        "components": [
                            {
                                "internalType": "address",
                                "name": "paymentToken",
                                "type": "address"
                            },
                            {
                                "internalType": "uint256",
                                "name": "paymentAmount",
                                "type": "uint256"
                            },
                            {
                                "internalType": "uint16",
                                "name": "agentFeePercent",
                                "type": "uint16"
                            }
                        ],
                        "internalType": "struct PayOption[]",
                        "name": "payWith",
                        "type": "tuple[]"
                    }
                ],
                "internalType": "struct Tariff",
                "name": "_newTariff",
                "type": "tuple"
            }
        ],
        "name": "registerServiceTariff",
        "outputs": [
            {
                "internalType": "uint256",
                "name": "",
                "type": "uint256"
            }
        ],
        "stateMutability": "nonpayable",
        "type": "function"
    },
    {
        "inputs": [
            {
                "internalType": "uint256",
                "name": "_index",
                "type": "uint256"
            }
        ],
        "name": "removeImplementationByIndex",
        "outputs": [

        ],
        "stateMutability": "nonpayable",
        "type": "function"
    },
    {
        "inputs": [

        ],
        "name": "renounceOwnership",
        "outputs": [

        ],
        "stateMutability": "nonpayable",
        "type": "function"
    },
    {
        "inputs": [

        ],
        "name": "serviceProvider",
        "outputs": [
            {
                "internalType": "address",
                "name": "",
                "type": "address"
            }
        ],
        "stateMutability": "view",
        "type": "function"
    },
    {
        "inputs": [
            {
                "internalType": "address",
                "name": "_factory",
                "type": "address"
            }
        ],
        "name": "setFactory",
        "outputs": [

        ],
        "stateMutability": "nonpayable",
        "type": "function"
    },
    {
        "inputs": [
            {
                "internalType": "bool",
                "name": "_isEnable",
                "type": "bool"
            }
        ],
        "name": "setSubscriptionOnOff",
        "outputs": [

        ],
        "stateMutability": "nonpayable",
        "type": "function"
    },
    {
        "inputs": [
            {
                "internalType": "address",
                "name": "_subscrRegistry",
                "type": "address"
            }
        ],
        "name": "setSubscriptionRegistry",
        "outputs": [

        ],
        "stateMutability": "nonpayable",
        "type": "function"
    },
    {
        "inputs": [

        ],
        "name": "subscriptionRegistry",
        "outputs": [
            {
                "internalType": "contract ISubscriptionRegistry",
                "name": "",
                "type": "address"
            }
        ],
        "stateMutability": "view",
        "type": "function"
    },
    {
        "inputs": [
            {
                "internalType": "uint256",
                "name": "",
                "type": "uint256"
            }
        ],
        "name": "supportedImplementations",
        "outputs": [
            {
                "internalType": "enum UsersSBTCollectionRegistry.AssetType",
                "name": "assetType",
                "type": "uint8"
            },
            {
                "internalType": "address",
                "name": "contractAddress",
                "type": "address"
            }
        ],
        "stateMutability": "view",
        "type": "function"
    },
    {
        "inputs": [
            {
                "internalType": "address",
                "name": "",
                "type": "address"
            },
            {
                "internalType": "uint256",
                "name": "",
                "type": "uint256"
            }
        ],
        "name": "ticketsForEvents",
        "outputs": [
            {
                "internalType": "address",
                "name": "",
                "type": "address"
            }
        ],
        "stateMutability": "view",
        "type": "function"
    },
    {
        "inputs": [
            {
                "internalType": "address",
                "name": "newOwner",
                "type": "address"
            }
        ],
        "name": "transferOwnership",
        "outputs": [

        ],
        "stateMutability": "nonpayable",
        "type": "function"
    }
]