[
    {
        "inputs": [
            {
                "internalType": "address",
                "name": "_subscrRegistry",
                "type": "address"
            }
        ],
        "stateMutability": "nonpayable",
        "type": "constructor"
    },
    {
        "inputs": [
            {
                "components": [
                    {
                        "components": [
                            {
                                "internalType": "enum ETypes.AssetType",
                                "name": "assetType",
                                "type": "uint8"
                            },
                            {
                                "internalType": "address",
                                "name": "contractAddress",
                                "type": "address"
                            }
                        ],
                        "internalType": "struct ETypes.Asset",
                        "name": "asset",
                        "type": "tuple"
                    },
                    {
                        "internalType": "uint256",
                        "name": "tokenId",
                        "type": "uint256"
                    },
                    {
                        "internalType": "uint256",
                        "name": "amount",
                        "type": "uint256"
                    }
                ],
                "internalType": "struct ETypes.AssetItem",
                "name": "asset",
                "type": "tuple"
            }
        ],
        "name": "UnSupportedAsset",
        "type": "error"
    },
    {
        "anonymous": false,
        "inputs": [
            {
                "indexed": true,
                "internalType": "bytes32",
                "name": "display",
                "type": "bytes32"
            },
            {
                "indexed": true,
                "internalType": "address",
                "name": "owner",
                "type": "address"
            },
            {
                "indexed": true,
                "internalType": "address",
                "name": "beneficiary",
                "type": "address"
            },
            {
                "indexed": false,
                "internalType": "uint256",
                "name": "enableAfter",
                "type": "uint256"
            },
            {
                "indexed": false,
                "internalType": "uint256",
                "name": "disableAfter",
                "type": "uint256"
            },
            {
                "indexed": false,
                "internalType": "address",
                "name": "priceModel",
                "type": "address"
            },
            {
                "indexed": false,
                "internalType": "string",
                "name": "name",
                "type": "string"
            }
        ],
        "name": "DisplayChanged",
        "type": "event"
    },
    {
        "anonymous": false,
        "inputs": [
            {
                "indexed": true,
                "internalType": "bytes32",
                "name": "display",
                "type": "bytes32"
            },
            {
                "indexed": true,
                "internalType": "address",
                "name": "from",
                "type": "address"
            },
            {
                "indexed": true,
                "internalType": "address",
                "name": "newOwner",
                "type": "address"
            }
        ],
        "name": "DisplayTransfer",
        "type": "event"
    },
    {
        "anonymous": false,
        "inputs": [
            {
                "indexed": true,
                "internalType": "bytes32",
                "name": "display",
                "type": "bytes32"
            },
            {
                "indexed": true,
                "internalType": "address",
                "name": "assetContract",
                "type": "address"
            },
            {
                "indexed": true,
                "internalType": "uint256",
                "name": "assetTokenId",
                "type": "uint256"
            }
        ],
        "name": "EnvelopPurchase",
        "type": "event"
    },
    {
        "anonymous": false,
        "inputs": [
            {
                "indexed": true,
                "internalType": "address",
                "name": "referrer",
                "type": "address"
            },
            {
                "indexed": true,
                "internalType": "address",
                "name": "customer",
                "type": "address"
            },
            {
                "indexed": true,
                "internalType": "address",
                "name": "payWithToken",
                "type": "address"
            },
            {
                "indexed": false,
                "internalType": "uint256",
                "name": "payWithAmount",
                "type": "uint256"
            },
            {
                "indexed": false,
                "internalType": "uint16",
                "name": "percentDiscount",
                "type": "uint16"
            }
        ],
        "name": "EnvelopReferrer",
        "type": "event"
    },
    {
        "anonymous": false,
        "inputs": [
            {
                "indexed": true,
                "internalType": "address",
                "name": "wrappedAddress",
                "type": "address"
            },
            {
                "indexed": true,
                "internalType": "uint256",
                "name": "wrappedIdaddress",
                "type": "uint256"
            },
            {
                "indexed": false,
                "internalType": "bytes2",
                "name": "newRules",
                "type": "bytes2"
            }
        ],
        "name": "EnvelopRulesChanged",
        "type": "event"
    },
    {
        "anonymous": false,
        "inputs": [
            {
                "indexed": true,
                "internalType": "bytes32",
                "name": "display",
                "type": "bytes32"
            },
            {
                "indexed": true,
                "internalType": "address",
                "name": "assetContract",
                "type": "address"
            },
            {
                "indexed": true,
                "internalType": "uint256",
                "name": "assetTokenId",
                "type": "uint256"
            },
            {
                "indexed": false,
                "internalType": "uint256",
                "name": "placeIndex",
                "type": "uint256"
            }
        ],
        "name": "ItemAddedToDisplay",
        "type": "event"
    },
    {
        "anonymous": false,
        "inputs": [
            {
                "indexed": true,
                "internalType": "bytes32",
                "name": "display",
                "type": "bytes32"
            },
            {
                "indexed": true,
                "internalType": "address",
                "name": "assetContract",
                "type": "address"
            },
            {
                "indexed": true,
                "internalType": "uint256",
                "name": "assetTokenId",
                "type": "uint256"
            }
        ],
        "name": "ItemPriceChanged",
        "type": "event"
    },
    {
        "anonymous": false,
        "inputs": [
            {
                "indexed": true,
                "internalType": "address",
                "name": "previousOwner",
                "type": "address"
            },
            {
                "indexed": true,
                "internalType": "address",
                "name": "newOwner",
                "type": "address"
            }
        ],
        "name": "OwnershipTransferred",
        "type": "event"
    },
    {
        "inputs": [

        ],
        "name": "DEFAULT_DISPLAY",
        "outputs": [
            {
                "internalType": "bytes32",
                "name": "",
                "type": "bytes32"
            }
        ],
        "stateMutability": "view",
        "type": "function"
    },
    {
        "inputs": [

        ],
        "name": "DEFAULT_INDEX",
        "outputs": [
            {
                "internalType": "uint256",
                "name": "",
                "type": "uint256"
            }
        ],
        "stateMutability": "view",
        "type": "function"
    },
    {
        "inputs": [

        ],
        "name": "PERCENT_DENOMINATOR",
        "outputs": [
            {
                "internalType": "uint256",
                "name": "",
                "type": "uint256"
            }
        ],
        "stateMutability": "view",
        "type": "function"
    },
    {
        "inputs": [
            {
                "internalType": "bytes32",
                "name": "_displayNameHash",
                "type": "bytes32"
            },
            {
                "internalType": "address",
                "name": "_admin",
                "type": "address"
            }
        ],
        "name": "addAdminToDisplay",
        "outputs": [

        ],
        "stateMutability": "nonpayable",
        "type": "function"
    },
    {
        "inputs": [
            {
                "components": [
                    {
                        "components": [
                            {
                                "internalType": "enum ETypes.AssetType",
                                "name": "assetType",
                                "type": "uint8"
                            },
                            {
                                "internalType": "address",
                                "name": "contractAddress",
                                "type": "address"
                            }
                        ],
                        "internalType": "struct ETypes.Asset",
                        "name": "asset",
                        "type": "tuple"
                    },
                    {
                        "internalType": "uint256",
                        "name": "tokenId",
                        "type": "uint256"
                    },
                    {
                        "internalType": "uint256",
                        "name": "amount",
                        "type": "uint256"
                    }
                ],
                "internalType": "struct ETypes.AssetItem",
                "name": "_assetItem",
                "type": "tuple"
            },
            {
                "components": [
                    {
                        "internalType": "address",
                        "name": "payWith",
                        "type": "address"
                    },
                    {
                        "internalType": "uint256",
                        "name": "amount",
                        "type": "uint256"
                    }
                ],
                "internalType": "struct KTypes.Price[]",
                "name": "_prices",
                "type": "tuple[]"
            }
        ],
        "name": "addAssetItemPriceAtIndex",
        "outputs": [

        ],
        "stateMutability": "nonpayable",
        "type": "function"
    },
    {
        "inputs": [
            {
                "internalType": "bytes32",
                "name": "_displayNameHash",
                "type": "bytes32"
            },
            {
                "components": [
                    {
                        "components": [
                            {
                                "internalType": "enum ETypes.AssetType",
                                "name": "assetType",
                                "type": "uint8"
                            },
                            {
                                "internalType": "address",
                                "name": "contractAddress",
                                "type": "address"
                            }
                        ],
                        "internalType": "struct ETypes.Asset",
                        "name": "asset",
                        "type": "tuple"
                    },
                    {
                        "internalType": "uint256",
                        "name": "tokenId",
                        "type": "uint256"
                    },
                    {
                        "internalType": "uint256",
                        "name": "amount",
                        "type": "uint256"
                    }
                ],
                "internalType": "struct ETypes.AssetItem[]",
                "name": "_assetItems",
                "type": "tuple[]"
            },
            {
                "components": [
                    {
                        "internalType": "address",
                        "name": "payWith",
                        "type": "address"
                    },
                    {
                        "internalType": "uint256",
                        "name": "amount",
                        "type": "uint256"
                    }
                ],
                "internalType": "struct KTypes.Price[]",
                "name": "_prices",
                "type": "tuple[]"
            }
        ],
        "name": "addBatchItemsToDisplayWithSamePrice",
        "outputs": [
            {
                "components": [
                    {
                        "internalType": "bytes32",
                        "name": "display",
                        "type": "bytes32"
                    },
                    {
                        "internalType": "uint256",
                        "name": "index",
                        "type": "uint256"
                    }
                ],
                "internalType": "struct KTypes.Place[]",
                "name": "",
                "type": "tuple[]"
            }
        ],
        "stateMutability": "nonpayable",
        "type": "function"
    },
    {
        "inputs": [
            {
                "internalType": "bytes32",
                "name": "_displayNameHash",
                "type": "bytes32"
            },
            {
                "components": [
                    {
                        "components": [
                            {
                                "internalType": "enum ETypes.AssetType",
                                "name": "assetType",
                                "type": "uint8"
                            },
                            {
                                "internalType": "address",
                                "name": "contractAddress",
                                "type": "address"
                            }
                        ],
                        "internalType": "struct ETypes.Asset",
                        "name": "asset",
                        "type": "tuple"
                    },
                    {
                        "internalType": "uint256",
                        "name": "tokenId",
                        "type": "uint256"
                    },
                    {
                        "internalType": "uint256",
                        "name": "amount",
                        "type": "uint256"
                    }
                ],
                "internalType": "struct ETypes.AssetItem",
                "name": "_assetItem",
                "type": "tuple"
            },
            {
                "components": [
                    {
                        "internalType": "address",
                        "name": "payWith",
                        "type": "address"
                    },
                    {
                        "internalType": "uint256",
                        "name": "amount",
                        "type": "uint256"
                    }
                ],
                "internalType": "struct KTypes.Price[]",
                "name": "_prices",
                "type": "tuple[]"
            }
        ],
        "name": "addItemToDisplay",
        "outputs": [
            {
                "components": [
                    {
                        "internalType": "bytes32",
                        "name": "display",
                        "type": "bytes32"
                    },
                    {
                        "internalType": "uint256",
                        "name": "index",
                        "type": "uint256"
                    }
                ],
                "internalType": "struct KTypes.Place",
                "name": "place",
                "type": "tuple"
            }
        ],
        "stateMutability": "nonpayable",
        "type": "function"
    },
    {
        "inputs": [
            {
                "internalType": "uint256",
                "name": "_tariffIndex",
                "type": "uint256"
            },
            {
                "internalType": "address",
                "name": "_paymentToken",
                "type": "address"
            },
            {
                "internalType": "uint256",
                "name": "_paymentAmount",
                "type": "uint256"
            },
            {
                "internalType": "uint16",
                "name": "_agentFeePercent",
                "type": "uint16"
            }
        ],
        "name": "addPayOption",
        "outputs": [
            {
                "internalType": "uint256",
                "name": "index",
                "type": "uint256"
            }
        ],
        "stateMutability": "nonpayable",
        "type": "function"
    },
    {
        "inputs": [
            {
                "internalType": "address",
                "name": "",
                "type": "address"
            },
            {
                "internalType": "uint256",
                "name": "",
                "type": "uint256"
            }
        ],
        "name": "assetAtDisplay",
        "outputs": [
            {
                "internalType": "bytes32",
                "name": "display",
                "type": "bytes32"
            },
            {
                "internalType": "uint256",
                "name": "index",
                "type": "uint256"
            }
        ],
        "stateMutability": "view",
        "type": "function"
    },
    {
        "inputs": [
            {
                "internalType": "address",
                "name": "_agent",
                "type": "address"
            },
            {
                "internalType": "uint256[]",
                "name": "_serviceTariffIndexes",
                "type": "uint256[]"
            }
        ],
        "name": "authorizeAgentForService",
        "outputs": [
            {
                "internalType": "uint256[]",
                "name": "actualTariffs",
                "type": "uint256[]"
            }
        ],
        "stateMutability": "nonpayable",
        "type": "function"
    },
    {
        "inputs": [
            {
                "components": [
                    {
                        "components": [
                            {
                                "internalType": "enum ETypes.AssetType",
                                "name": "assetType",
                                "type": "uint8"
                            },
                            {
                                "internalType": "address",
                                "name": "contractAddress",
                                "type": "address"
                            }
                        ],
                        "internalType": "struct ETypes.Asset",
                        "name": "asset",
                        "type": "tuple"
                    },
                    {
                        "internalType": "uint256",
                        "name": "tokenId",
                        "type": "uint256"
                    },
                    {
                        "internalType": "uint256",
                        "name": "amount",
                        "type": "uint256"
                    }
                ],
                "internalType": "struct ETypes.AssetItem",
                "name": "_assetItem",
                "type": "tuple"
            },
            {
                "internalType": "uint256",
                "name": "_priceIndex",
                "type": "uint256"
            },
            {
                "internalType": "address",
                "name": "_buyer",
                "type": "address"
            },
            {
                "internalType": "address",
                "name": "_referrer",
                "type": "address"
            },
            {
                "internalType": "string",
                "name": "_promo",
                "type": "string"
            }
        ],
        "name": "buyAssetItem",
        "outputs": [

        ],
        "stateMutability": "payable",
        "type": "function"
    },
    {
        "inputs": [
            {
                "internalType": "bytes32",
                "name": "_displayNameHash",
                "type": "bytes32"
            },
            {
                "internalType": "address",
                "name": "_who",
                "type": "address"
            }
        ],
        "name": "canBuyForFree",
        "outputs": [
            {
                "internalType": "bool",
                "name": "",
                "type": "bool"
            }
        ],
        "stateMutability": "view",
        "type": "function"
    },
    {
        "inputs": [
            {
                "internalType": "address",
                "name": "_user",
                "type": "address"
            }
        ],
        "name": "checkUser",
        "outputs": [
            {
                "internalType": "bool",
                "name": "ok",
                "type": "bool"
            },
            {
                "internalType": "bool",
                "name": "needFix",
                "type": "bool"
            }
        ],
        "stateMutability": "view",
        "type": "function"
    },
    {
        "inputs": [
            {
                "internalType": "bytes32",
                "name": "",
                "type": "bytes32"
            },
            {
                "internalType": "uint256",
                "name": "",
                "type": "uint256"
            }
        ],
        "name": "displayAdmins",
        "outputs": [
            {
                "internalType": "address",
                "name": "",
                "type": "address"
            }
        ],
        "stateMutability": "view",
        "type": "function"
    },
    {
        "inputs": [
            {
                "internalType": "bytes32",
                "name": "",
                "type": "bytes32"
            }
        ],
        "name": "displays",
        "outputs": [
            {
                "internalType": "address",
                "name": "owner",
                "type": "address"
            },
            {
                "internalType": "address",
                "name": "beneficiary",
                "type": "address"
            },
            {
                "internalType": "uint256",
                "name": "enableAfter",
                "type": "uint256"
            },
            {
                "internalType": "uint256",
                "name": "disableAfter",
                "type": "uint256"
            },
            {
                "internalType": "address",
                "name": "priceModel",
                "type": "address"
            }
        ],
        "stateMutability": "view",
        "type": "function"
    },
    {
        "inputs": [
            {
                "components": [
                    {
                        "components": [
                            {
                                "internalType": "enum ETypes.AssetType",
                                "name": "assetType",
                                "type": "uint8"
                            },
                            {
                                "internalType": "address",
                                "name": "contractAddress",
                                "type": "address"
                            }
                        ],
                        "internalType": "struct ETypes.Asset",
                        "name": "asset",
                        "type": "tuple"
                    },
                    {
                        "internalType": "uint256",
                        "name": "tokenId",
                        "type": "uint256"
                    },
                    {
                        "internalType": "uint256",
                        "name": "amount",
                        "type": "uint256"
                    }
                ],
                "internalType": "struct ETypes.AssetItem",
                "name": "_assetItem",
                "type": "tuple"
            },
            {
                "internalType": "uint256",
                "name": "_priceIndex",
                "type": "uint256"
            },
            {
                "components": [
                    {
                        "internalType": "address",
                        "name": "payWith",
                        "type": "address"
                    },
                    {
                        "internalType": "uint256",
                        "name": "amount",
                        "type": "uint256"
                    }
                ],
                "internalType": "struct KTypes.Price",
                "name": "_price",
                "type": "tuple"
            }
        ],
        "name": "editAssetItemPriceAtIndex",
        "outputs": [

        ],
        "stateMutability": "nonpayable",
        "type": "function"
    },
    {
        "inputs": [
            {
                "internalType": "uint256",
                "name": "_tariffIndex",
                "type": "uint256"
            },
            {
                "internalType": "uint256",
                "name": "_payWithIndex",
                "type": "uint256"
            },
            {
                "internalType": "address",
                "name": "_paymentToken",
                "type": "address"
            },
            {
                "internalType": "uint256",
                "name": "_paymentAmount",
                "type": "uint256"
            },
            {
                "internalType": "uint16",
                "name": "_agentFeePercent",
                "type": "uint16"
            }
        ],
        "name": "editPayOption",
        "outputs": [

        ],
        "stateMutability": "nonpayable",
        "type": "function"
    },
    {
        "inputs": [
            {
                "internalType": "uint256",
                "name": "_tariffIndex",
                "type": "uint256"
            },
            {
                "internalType": "uint256",
                "name": "_timelockPeriod",
                "type": "uint256"
            },
            {
                "internalType": "uint256",
                "name": "_ticketValidPeriod",
                "type": "uint256"
            },
            {
                "internalType": "uint256",
                "name": "_counter",
                "type": "uint256"
            },
            {
                "internalType": "bool",
                "name": "_isAvailable",
                "type": "bool"
            },
            {
                "internalType": "address",
                "name": "_beneficiary",
                "type": "address"
            }
        ],
        "name": "editServiceTariff",
        "outputs": [

        ],
        "stateMutability": "nonpayable",
        "type": "function"
    },
    {
        "inputs": [
            {
                "components": [
                    {
                        "components": [
                            {
                                "internalType": "enum ETypes.AssetType",
                                "name": "assetType",
                                "type": "uint8"
                            },
                            {
                                "internalType": "address",
                                "name": "contractAddress",
                                "type": "address"
                            }
                        ],
                        "internalType": "struct ETypes.Asset",
                        "name": "asset",
                        "type": "tuple"
                    },
                    {
                        "internalType": "uint256",
                        "name": "tokenId",
                        "type": "uint256"
                    },
                    {
                        "internalType": "uint256",
                        "name": "amount",
                        "type": "uint256"
                    }
                ],
                "internalType": "struct ETypes.AssetItem",
                "name": "_assetItem",
                "type": "tuple"
            }
        ],
        "name": "getAssetItem",
        "outputs": [
            {
                "components": [
                    {
                        "internalType": "address",
                        "name": "owner",
                        "type": "address"
                    },
                    {
                        "components": [
                            {
                                "components": [
                                    {
                                        "internalType": "enum ETypes.AssetType",
                                        "name": "assetType",
                                        "type": "uint8"
                                    },
                                    {
                                        "internalType": "address",
                                        "name": "contractAddress",
                                        "type": "address"
                                    }
                                ],
                                "internalType": "struct ETypes.Asset",
                                "name": "asset",
                                "type": "tuple"
                            },
                            {
                                "internalType": "uint256",
                                "name": "tokenId",
                                "type": "uint256"
                            },
                            {
                                "internalType": "uint256",
                                "name": "amount",
                                "type": "uint256"
                            }
                        ],
                        "internalType": "struct ETypes.AssetItem",
                        "name": "nft",
                        "type": "tuple"
                    },
                    {
                        "components": [
                            {
                                "internalType": "address",
                                "name": "payWith",
                                "type": "address"
                            },
                            {
                                "internalType": "uint256",
                                "name": "amount",
                                "type": "uint256"
                            }
                        ],
                        "internalType": "struct KTypes.Price[]",
                        "name": "prices",
                        "type": "tuple[]"
                    }
                ],
                "internalType": "struct KTypes.ItemForSale",
                "name": "",
                "type": "tuple"
            }
        ],
        "stateMutability": "view",
        "type": "function"
    },
    {
        "inputs": [
            {
                "components": [
                    {
                        "components": [
                            {
                                "internalType": "enum ETypes.AssetType",
                                "name": "assetType",
                                "type": "uint8"
                            },
                            {
                                "internalType": "address",
                                "name": "contractAddress",
                                "type": "address"
                            }
                        ],
                        "internalType": "struct ETypes.Asset",
                        "name": "asset",
                        "type": "tuple"
                    },
                    {
                        "internalType": "uint256",
                        "name": "tokenId",
                        "type": "uint256"
                    },
                    {
                        "internalType": "uint256",
                        "name": "amount",
                        "type": "uint256"
                    }
                ],
                "internalType": "struct ETypes.AssetItem",
                "name": "_assetItem",
                "type": "tuple"
            }
        ],
        "name": "getAssetItemPlace",
        "outputs": [
            {
                "components": [
                    {
                        "internalType": "bytes32",
                        "name": "display",
                        "type": "bytes32"
                    },
                    {
                        "internalType": "uint256",
                        "name": "index",
                        "type": "uint256"
                    }
                ],
                "internalType": "struct KTypes.Place",
                "name": "",
                "type": "tuple"
            }
        ],
        "stateMutability": "view",
        "type": "function"
    },
    {
        "inputs": [
            {
                "components": [
                    {
                        "components": [
                            {
                                "internalType": "enum ETypes.AssetType",
                                "name": "assetType",
                                "type": "uint8"
                            },
                            {
                                "internalType": "address",
                                "name": "contractAddress",
                                "type": "address"
                            }
                        ],
                        "internalType": "struct ETypes.Asset",
                        "name": "asset",
                        "type": "tuple"
                    },
                    {
                        "internalType": "uint256",
                        "name": "tokenId",
                        "type": "uint256"
                    },
                    {
                        "internalType": "uint256",
                        "name": "amount",
                        "type": "uint256"
                    }
                ],
                "internalType": "struct ETypes.AssetItem",
                "name": "_assetItem",
                "type": "tuple"
            },
            {
                "internalType": "address",
                "name": "_buyer",
                "type": "address"
            },
            {
                "internalType": "address",
                "name": "_referrer",
                "type": "address"
            },
            {
                "internalType": "string",
                "name": "_promo",
                "type": "string"
            }
        ],
        "name": "getAssetItemPricesAndDiscounts",
        "outputs": [
            {
                "components": [
                    {
                        "internalType": "address",
                        "name": "payWith",
                        "type": "address"
                    },
                    {
                        "internalType": "uint256",
                        "name": "amount",
                        "type": "uint256"
                    }
                ],
                "internalType": "struct KTypes.Price[]",
                "name": "",
                "type": "tuple[]"
            },
            {
                "components": [
                    {
                        "internalType": "enum KTypes.DiscountType",
                        "name": "dsctType",
                        "type": "uint8"
                    },
                    {
                        "internalType": "uint16",
                        "name": "dsctPercent",
                        "type": "uint16"
                    }
                ],
                "internalType": "struct KTypes.Discount[]",
                "name": "",
                "type": "tuple[]"
            }
        ],
        "stateMutability": "view",
        "type": "function"
    },
    {
        "inputs": [
            {
                "internalType": "bytes32",
                "name": "_displayNameHash",
                "type": "bytes32"
            }
        ],
        "name": "getDisplay",
        "outputs": [
            {
                "components": [
                    {
                        "internalType": "address",
                        "name": "owner",
                        "type": "address"
                    },
                    {
                        "internalType": "address",
                        "name": "beneficiary",
                        "type": "address"
                    },
                    {
                        "internalType": "uint256",
                        "name": "enableAfter",
                        "type": "uint256"
                    },
                    {
                        "internalType": "uint256",
                        "name": "disableAfter",
                        "type": "uint256"
                    },
                    {
                        "internalType": "address",
                        "name": "priceModel",
                        "type": "address"
                    },
                    {
                        "components": [
                            {
                                "internalType": "address",
                                "name": "owner",
                                "type": "address"
                            },
                            {
                                "components": [
                                    {
                                        "components": [
                                            {
                                                "internalType": "enum ETypes.AssetType",
                                                "name": "assetType",
                                                "type": "uint8"
                                            },
                                            {
                                                "internalType": "address",
                                                "name": "contractAddress",
                                                "type": "address"
                                            }
                                        ],
                                        "internalType": "struct ETypes.Asset",
                                        "name": "asset",
                                        "type": "tuple"
                                    },
                                    {
                                        "internalType": "uint256",
                                        "name": "tokenId",
                                        "type": "uint256"
                                    },
                                    {
                                        "internalType": "uint256",
                                        "name": "amount",
                                        "type": "uint256"
                                    }
                                ],
                                "internalType": "struct ETypes.AssetItem",
                                "name": "nft",
                                "type": "tuple"
                            },
                            {
                                "components": [
                                    {
                                        "internalType": "address",
                                        "name": "payWith",
                                        "type": "address"
                                    },
                                    {
                                        "internalType": "uint256",
                                        "name": "amount",
                                        "type": "uint256"
                                    }
                                ],
                                "internalType": "struct KTypes.Price[]",
                                "name": "prices",
                                "type": "tuple[]"
                            }
                        ],
                        "internalType": "struct KTypes.ItemForSale[]",
                        "name": "items",
                        "type": "tuple[]"
                    }
                ],
                "internalType": "struct KTypes.Display",
                "name": "",
                "type": "tuple"
            }
        ],
        "stateMutability": "view",
        "type": "function"
    },
    {
        "inputs": [
            {
                "internalType": "bytes32",
                "name": "_displayNameHash",
                "type": "bytes32"
            }
        ],
        "name": "getDisplayAssetItems",
        "outputs": [
            {
                "components": [
                    {
                        "internalType": "address",
                        "name": "owner",
                        "type": "address"
                    },
                    {
                        "components": [
                            {
                                "components": [
                                    {
                                        "internalType": "enum ETypes.AssetType",
                                        "name": "assetType",
                                        "type": "uint8"
                                    },
                                    {
                                        "internalType": "address",
                                        "name": "contractAddress",
                                        "type": "address"
                                    }
                                ],
                                "internalType": "struct ETypes.Asset",
                                "name": "asset",
                                "type": "tuple"
                            },
                            {
                                "internalType": "uint256",
                                "name": "tokenId",
                                "type": "uint256"
                            },
                            {
                                "internalType": "uint256",
                                "name": "amount",
                                "type": "uint256"
                            }
                        ],
                        "internalType": "struct ETypes.AssetItem",
                        "name": "nft",
                        "type": "tuple"
                    },
                    {
                        "components": [
                            {
                                "internalType": "address",
                                "name": "payWith",
                                "type": "address"
                            },
                            {
                                "internalType": "uint256",
                                "name": "amount",
                                "type": "uint256"
                            }
                        ],
                        "internalType": "struct KTypes.Price[]",
                        "name": "prices",
                        "type": "tuple[]"
                    }
                ],
                "internalType": "struct KTypes.ItemForSale[]",
                "name": "",
                "type": "tuple[]"
            }
        ],
        "stateMutability": "view",
        "type": "function"
    },
    {
        "inputs": [
            {
                "internalType": "bytes32",
                "name": "_displayNameHash",
                "type": "bytes32"
            }
        ],
        "name": "getDisplayOwner",
        "outputs": [
            {
                "internalType": "address",
                "name": "",
                "type": "address"
            }
        ],
        "stateMutability": "view",
        "type": "function"
    },
    {
        "inputs": [
            {
                "internalType": "string",
                "name": "_name",
                "type": "string"
            }
        ],
        "name": "hlpHashString",
        "outputs": [
            {
                "internalType": "bytes32",
                "name": "",
                "type": "bytes32"
            }
        ],
        "stateMutability": "pure",
        "type": "function"
    },
    {
        "inputs": [
            {
                "internalType": "bytes32",
                "name": "_displayNameHash",
                "type": "bytes32"
            },
            {
                "internalType": "address",
                "name": "_who",
                "type": "address"
            }
        ],
        "name": "isDisplayAdmin",
        "outputs": [
            {
                "internalType": "bool",
                "name": "",
                "type": "bool"
            }
        ],
        "stateMutability": "view",
        "type": "function"
    },
    {
        "inputs": [

        ],
        "name": "isEnabled",
        "outputs": [
            {
                "internalType": "bool",
                "name": "",
                "type": "bool"
            }
        ],
        "stateMutability": "view",
        "type": "function"
    },
    {
        "inputs": [

        ],
        "name": "modelWhiteListAddress",
        "outputs": [
            {
                "internalType": "address",
                "name": "",
                "type": "address"
            }
        ],
        "stateMutability": "view",
        "type": "function"
    },
    {
        "inputs": [
            {
                "components": [
                    {
                        "components": [
                            {
                                "internalType": "uint256",
                                "name": "timelockPeriod",
                                "type": "uint256"
                            },
                            {
                                "internalType": "uint256",
                                "name": "ticketValidPeriod",
                                "type": "uint256"
                            },
                            {
                                "internalType": "uint256",
                                "name": "counter",
                                "type": "uint256"
                            },
                            {
                                "internalType": "bool",
                                "name": "isAvailable",
                                "type": "bool"
                            },
                            {
                                "internalType": "address",
                                "name": "beneficiary",
                                "type": "address"
                            }
                        ],
                        "internalType": "struct SubscriptionType",
                        "name": "subscription",
                        "type": "tuple"
                    },
                    {
                        "components": [
                            {
                                "internalType": "address",
                                "name": "paymentToken",
                                "type": "address"
                            },
                            {
                                "internalType": "uint256",
                                "name": "paymentAmount",
                                "type": "uint256"
                            },
                            {
                                "internalType": "uint16",
                                "name": "agentFeePercent",
                                "type": "uint16"
                            }
                        ],
                        "internalType": "struct PayOption[]",
                        "name": "payWith",
                        "type": "tuple[]"
                    }
                ],
                "internalType": "struct Tariff",
                "name": "_newTariff",
                "type": "tuple"
            }
        ],
        "name": "newTariff",
        "outputs": [
            {
                "internalType": "uint256",
                "name": "tariffIndex",
                "type": "uint256"
            }
        ],
        "stateMutability": "nonpayable",
        "type": "function"
    },
    {
        "inputs": [
            {
                "internalType": "address",
                "name": "",
                "type": "address"
            },
            {
                "internalType": "address",
                "name": "",
                "type": "address"
            },
            {
                "internalType": "uint256[]",
                "name": "",
                "type": "uint256[]"
            },
            {
                "internalType": "uint256[]",
                "name": "",
                "type": "uint256[]"
            },
            {
                "internalType": "bytes",
                "name": "",
                "type": "bytes"
            }
        ],
        "name": "onERC1155BatchReceived",
        "outputs": [
            {
                "internalType": "bytes4",
                "name": "",
                "type": "bytes4"
            }
        ],
        "stateMutability": "nonpayable",
        "type": "function"
    },
    {
        "inputs": [
            {
                "internalType": "address",
                "name": "",
                "type": "address"
            },
            {
                "internalType": "address",
                "name": "",
                "type": "address"
            },
            {
                "internalType": "uint256",
                "name": "",
                "type": "uint256"
            },
            {
                "internalType": "uint256",
                "name": "",
                "type": "uint256"
            },
            {
                "internalType": "bytes",
                "name": "",
                "type": "bytes"
            }
        ],
        "name": "onERC1155Received",
        "outputs": [
            {
                "internalType": "bytes4",
                "name": "",
                "type": "bytes4"
            }
        ],
        "stateMutability": "nonpayable",
        "type": "function"
    },
    {
        "inputs": [
            {
                "internalType": "address",
                "name": "",
                "type": "address"
            },
            {
                "internalType": "address",
                "name": "",
                "type": "address"
            },
            {
                "internalType": "uint256",
                "name": "",
                "type": "uint256"
            },
            {
                "internalType": "bytes",
                "name": "",
                "type": "bytes"
            }
        ],
        "name": "onERC721Received",
        "outputs": [
            {
                "internalType": "bytes4",
                "name": "",
                "type": "bytes4"
            }
        ],
        "stateMutability": "nonpayable",
        "type": "function"
    },
    {
        "inputs": [

        ],
        "name": "owner",
        "outputs": [
            {
                "internalType": "address",
                "name": "",
                "type": "address"
            }
        ],
        "stateMutability": "view",
        "type": "function"
    },
    {
        "inputs": [
            {
                "components": [
                    {
                        "components": [
                            {
                                "internalType": "uint256",
                                "name": "timelockPeriod",
                                "type": "uint256"
                            },
                            {
                                "internalType": "uint256",
                                "name": "ticketValidPeriod",
                                "type": "uint256"
                            },
                            {
                                "internalType": "uint256",
                                "name": "counter",
                                "type": "uint256"
                            },
                            {
                                "internalType": "bool",
                                "name": "isAvailable",
                                "type": "bool"
                            },
                            {
                                "internalType": "address",
                                "name": "beneficiary",
                                "type": "address"
                            }
                        ],
                        "internalType": "struct SubscriptionType",
                        "name": "subscription",
                        "type": "tuple"
                    },
                    {
                        "components": [
                            {
                                "internalType": "address",
                                "name": "paymentToken",
                                "type": "address"
                            },
                            {
                                "internalType": "uint256",
                                "name": "paymentAmount",
                                "type": "uint256"
                            },
                            {
                                "internalType": "uint16",
                                "name": "agentFeePercent",
                                "type": "uint16"
                            }
                        ],
                        "internalType": "struct PayOption[]",
                        "name": "payWith",
                        "type": "tuple[]"
                    }
                ],
                "internalType": "struct Tariff",
                "name": "_newTariff",
                "type": "tuple"
            }
        ],
        "name": "registerServiceTariff",
        "outputs": [
            {
                "internalType": "uint256",
                "name": "",
                "type": "uint256"
            }
        ],
        "stateMutability": "nonpayable",
        "type": "function"
    },
    {
        "inputs": [
            {
                "internalType": "bytes32",
                "name": "_displayNameHash",
                "type": "bytes32"
            },
            {
                "internalType": "uint256",
                "name": "_adminIndex",
                "type": "uint256"
            }
        ],
        "name": "removeAdminFromDisplayByIndex",
        "outputs": [

        ],
        "stateMutability": "nonpayable",
        "type": "function"
    },
    {
        "inputs": [
            {
                "components": [
                    {
                        "components": [
                            {
                                "internalType": "enum ETypes.AssetType",
                                "name": "assetType",
                                "type": "uint8"
                            },
                            {
                                "internalType": "address",
                                "name": "contractAddress",
                                "type": "address"
                            }
                        ],
                        "internalType": "struct ETypes.Asset",
                        "name": "asset",
                        "type": "tuple"
                    },
                    {
                        "internalType": "uint256",
                        "name": "tokenId",
                        "type": "uint256"
                    },
                    {
                        "internalType": "uint256",
                        "name": "amount",
                        "type": "uint256"
                    }
                ],
                "internalType": "struct ETypes.AssetItem",
                "name": "_assetItem",
                "type": "tuple"
            }
        ],
        "name": "removeLastPersonalPriceForAssetItem",
        "outputs": [

        ],
        "stateMutability": "nonpayable",
        "type": "function"
    },
    {
        "inputs": [

        ],
        "name": "renounceOwnership",
        "outputs": [

        ],
        "stateMutability": "nonpayable",
        "type": "function"
    },
    {
        "inputs": [

        ],
        "name": "serviceProvider",
        "outputs": [
            {
                "internalType": "address",
                "name": "",
                "type": "address"
            }
        ],
        "stateMutability": "view",
        "type": "function"
    },
    {
        "inputs": [
            {
                "internalType": "string",
                "name": "_name",
                "type": "string"
            },
            {
                "internalType": "address",
                "name": "_beneficiary",
                "type": "address"
            },
            {
                "internalType": "uint256",
                "name": "_enableAfter",
                "type": "uint256"
            },
            {
                "internalType": "uint256",
                "name": "_disableAfter",
                "type": "uint256"
            },
            {
                "internalType": "address",
                "name": "_priceModel",
                "type": "address"
            }
        ],
        "name": "setDisplayParams",
        "outputs": [

        ],
        "stateMutability": "nonpayable",
        "type": "function"
    },
    {
        "inputs": [
            {
                "internalType": "bool",
                "name": "_isEnable",
                "type": "bool"
            }
        ],
        "name": "setSubscriptionOnOff",
        "outputs": [

        ],
        "stateMutability": "nonpayable",
        "type": "function"
    },
    {
        "inputs": [
            {
                "internalType": "address",
                "name": "_subscrRegistry",
                "type": "address"
            }
        ],
        "name": "setSubscriptionRegistry",
        "outputs": [

        ],
        "stateMutability": "nonpayable",
        "type": "function"
    },
    {
        "inputs": [
            {
                "internalType": "address",
                "name": "_modelWhiteList",
                "type": "address"
            }
        ],
        "name": "setWhiteList",
        "outputs": [

        ],
        "stateMutability": "nonpayable",
        "type": "function"
    },
    {
        "inputs": [

        ],
        "name": "subscriptionRegistry",
        "outputs": [
            {
                "internalType": "contract ISubscriptionRegistry",
                "name": "",
                "type": "address"
            }
        ],
        "stateMutability": "view",
        "type": "function"
    },
    {
        "inputs": [
            {
                "internalType": "bytes4",
                "name": "interfaceId",
                "type": "bytes4"
            }
        ],
        "name": "supportsInterface",
        "outputs": [
            {
                "internalType": "bool",
                "name": "",
                "type": "bool"
            }
        ],
        "stateMutability": "view",
        "type": "function"
    },
    {
        "inputs": [
            {
                "internalType": "address",
                "name": "_to",
                "type": "address"
            },
            {
                "internalType": "bytes32",
                "name": "_displayNameHash",
                "type": "bytes32"
            }
        ],
        "name": "transferDisplay",
        "outputs": [

        ],
        "stateMutability": "nonpayable",
        "type": "function"
    },
    {
        "inputs": [
            {
                "internalType": "address",
                "name": "newOwner",
                "type": "address"
            }
        ],
        "name": "transferOwnership",
        "outputs": [

        ],
        "stateMutability": "nonpayable",
        "type": "function"
    }
]